
zzz.png
size: 1928,900
format: RGBA8888
filter: Linear,Linear
repeat: none
Layer 1
  rotate: true
  xy: 2, 2
  size: 229, 327
  orig: 229, 327
  offset: 0, 0
  index: -1
Layer 2
  rotate: true
  xy: 1168, 119
  size: 112, 161
  orig: 112, 161
  offset: 0, 0
  index: -1
Layer 3
  rotate: true
  xy: 1331, 99
  size: 132, 136
  orig: 132, 136
  offset: 0, 0
  index: -1
Layer 4
  rotate: false
  xy: 1626, 145
  size: 99, 86
  orig: 99, 86
  offset: 0, 0
  index: -1
Layer 5
  rotate: true
  xy: 1469, 146
  size: 85, 155
  orig: 85, 155
  offset: 0, 0
  index: -1
Layer 6
  rotate: true
  xy: 734, 122
  size: 109, 252
  orig: 109, 252
  offset: 0, 0
  index: -1
Layer 7
  rotate: true
  xy: 988, 86
  size: 145, 178
  orig: 145, 178
  offset: 0, 0
  index: -1
Layer 8
  rotate: true
  xy: 331, 79
  size: 152, 401
  orig: 152, 401
  offset: 0, 0
  index: -1
Vibrance 1
  rotate: false
  xy: 2, 233
  size: 1922, 663
  orig: 1922, 663
  offset: 0, 0
  index: -1
