
skeleton.png
size: 104,100
format: RGBA8888
filter: Linear,Linear
repeat: none
Group 2
  rotate: false
  xy: 46, 45
  size: 56, 53
  orig: 56, 53
  offset: 0, 0
  index: -1
Layer 8
  rotate: false
  xy: 2, 8
  size: 42, 90
  orig: 42, 90
  offset: 0, 0
  index: -1
Layer 9
  rotate: false
  xy: 46, 2
  size: 53, 41
  orig: 53, 41
  offset: 0, 0
  index: -1
